Calcular índices de concavidad y perfiles longitudinales de cursos fluviales
…
Tabla dx/dy, tanto en metros como adimensional. Útiles para construir perfiles por cuenta propia

pantuflas_conv_prof$lengthzdata %>% tibble::as.tibble()
## Warning: `as.tibble()` is deprecated, use `as_tibble()` (but mind the new semantics).
## This warning is displayed once per session.
## # A tibble: 1,087 x 4
##    stream length     z rowname
##    <fct>   <dbl> <dbl>   <int>
##  1 Ptl-1     0   1065.       1
##  2 Ptl-1    89.8 1065.       2
##  3 Ptl-1   127.  1065.       3
##  4 Ptl-1   217.  1066.       4
##  5 Ptl-1   306.  1066.       5
##  6 Ptl-1   344.  1066.       6
##  7 Ptl-1   433.  1067.       7
##  8 Ptl-1   471.  1067.       8
##  9 Ptl-1   560.  1069.       9
## 10 Ptl-1   650.  1071.      10
## # … with 1,077 more rows
pantuflas_conv_prof$lengthzdatadmnls %>% tibble::as.tibble()
## # A tibble: 1,087 x 6
##    stream length     z rowname length.dmnls  z.dmnls
##    <fct>   <dbl> <dbl>   <int>        <dbl>    <dbl>
##  1 Ptl-1     0   1065.       1      0       0       
##  2 Ptl-1    89.8 1065.       2      0.00409 0.000104
##  3 Ptl-1   127.  1065.       3      0.00578 0.000148
##  4 Ptl-1   217.  1066.       4      0.00987 0.000276
##  5 Ptl-1   306.  1066.       5      0.0140  0.000504
##  6 Ptl-1   344.  1066.       6      0.0156  0.000650
##  7 Ptl-1   433.  1067.       7      0.0197  0.00117 
##  8 Ptl-1   471.  1067.       8      0.0214  0.00147 
##  9 Ptl-1   560.  1069.       9      0.0255  0.00245 
## 10 Ptl-1   650.  1071.      10      0.0296  0.00381 
## # … with 1,077 more rows
…
